{
  "count": 214,
  "next": "https://ll.thespacedevs.com/2.0.0/launch/?format=json&limit=10&mode=list&offset=10&search=SpaceX",
  "previous": null,
  "results": [
    {
      "id": "b8741d6a-bf47-44eb-b740-f091b5fd3c62",
      "url": "https://ll.thespacedevs.com/2.2.0/launch/b8741d6a-bf47-44eb-b740-f091b5fd3c62/?format=json",
      "launch_library_id": 1298,
      "slug": "falcon-1-falconsat-2",
      "name": "Falcon 1 | FalconSAT-2",
      "status": { "id": 4, "name": "Failure" },
      "net": "2006-03-24T22:30:00Z",
      "window_end": "2006-03-24T22:30:00Z",
      "window_start": "2006-03-24T22:30:00Z",
      "lsp_name": "SpaceX",
      "mission": null,
      "pad": "Omelek Island",
      "location": "Ronald Reagan Ballistic Missile Defense Test Site, Kwajalein Atoll, Marshall Islands",
      "landing": null,
      "landing_success": null,
      "launcher": null,
      "orbit": null,
      "image": "https://spacelaunchnow-prod-east.nyc3.digitaloceanspaces.com/media/launcher_images/falcon_image_20190222030438.jpeg",
      "infographic": null
    },
    {
      "id": "9a50023f-07fe-45ac-9ac6-7fb6b5ea970d",
      "url": "https://ll.thespacedevs.com/2.2.0/launch/9a50023f-07fe-45ac-9ac6-7fb6b5ea970d/?format=json",
      "launch_library_id": 1299,
      "slug": "falcon-1-demosat",
      "name": "Falcon 1 | DemoSat",
      "status": { "id": 4, "name": "Failure" },
      "net": "2007-03-21T01:10:00Z",
      "window_end": "2007-03-21T01:10:00Z",
      "window_start": "2007-03-21T01:10:00Z",
      "lsp_name": "SpaceX",
      "mission": null,
      "pad": "Omelek Island",
      "location": "Ronald Reagan Ballistic Missile Defense Test Site, Kwajalein Atoll, Marshall Islands",
      "landing": null,
      "landing_success": null,
      "launcher": null,
      "orbit": null,
      "image": "https://spacelaunchnow-prod-east.nyc3.digitaloceanspaces.com/media/launcher_images/falcon_image_20190222030438.jpeg",
      "infographic": null
    },
    {
      "id": "cdeb321f-0860-4064-ba76-4ad0f9022103",
      "url": "https://ll.thespacedevs.com/2.2.0/launch/cdeb321f-0860-4064-ba76-4ad0f9022103/?format=json",
      "launch_library_id": 1300,
      "slug": "falcon-1-flight-3",
      "name": "Falcon 1 | Flight 3",
      "status": { "id": 4, "name": "Failure" },
      "net": "2008-08-03T03:34:00Z",
      "window_end": "2008-08-03T03:34:00Z",
      "window_start": "2008-08-03T03:34:00Z",
      "lsp_name": "SpaceX",
      "mission": null,
      "pad": "Omelek Island",
      "location": "Ronald Reagan Ballistic Missile Defense Test Site, Kwajalein Atoll, Marshall Islands",
      "landing": null,
      "landing_success": null,
      "launcher": null,
      "orbit": null,
      "image": "https://spacelaunchnow-prod-east.nyc3.digitaloceanspaces.com/media/launcher_images/falcon_image_20190222030438.jpeg",
      "infographic": null
    },
    {
      "id": "0560cfb0-ed19-4e8b-9fe9-728feb0f817c",
      "url": "https://ll.thespacedevs.com/2.2.0/launch/0560cfb0-ed19-4e8b-9fe9-728feb0f817c/?format=json",
      "launch_library_id": 1301,
      "slug": "falcon-1-ratsat",
      "name": "Falcon 1 | RatSat",
      "status": { "id": 3, "name": "Success" },
      "net": "2008-09-28T23:15:00Z",
      "window_end": "2008-09-28T23:15:00Z",
      "window_start": "2008-09-28T23:15:00Z",
      "lsp_name": "SpaceX",
      "mission": null,
      "pad": "Omelek Island",
      "location": "Ronald Reagan Ballistic Missile Defense Test Site, Kwajalein Atoll, Marshall Islands",
      "landing": null,
      "landing_success": null,
      "launcher": null,
      "orbit": null,
      "image": "https://spacelaunchnow-prod-east.nyc3.digitaloceanspaces.com/media/launcher_images/falcon_image_20190222030438.jpeg",
      "infographic": null
    },
    {
      "id": "10be093a-ad74-46e6-a26c-37626e6d72b7",
      "url": "https://ll.thespacedevs.com/2.2.0/launch/10be093a-ad74-46e6-a26c-37626e6d72b7/?format=json",
      "launch_library_id": 1302,
      "slug": "falcon-1-razaksat",
      "name": "Falcon 1 | RazakSAT",
      "status": { "id": 3, "name": "Success" },
      "net": "2009-07-14T03:35:00Z",
      "window_end": "2009-07-14T03:35:00Z",
      "window_start": "2009-07-14T03:35:00Z",
      "lsp_name": "SpaceX",
      "mission": null,
      "pad": "Omelek Island",
      "location": "Ronald Reagan Ballistic Missile Defense Test Site, Kwajalein Atoll, Marshall Islands",
      "landing": null,
      "landing_success": null,
      "launcher": null,
      "orbit": null,
      "image": "https://spacelaunchnow-prod-east.nyc3.digitaloceanspaces.com/media/launcher_images/falcon_image_20190222030438.jpeg",
      "infographic": null
    },
    {
      "id": "2ead3d70-ac04-40ee-b4a6-dfecfe519ee5",
      "url": "https://ll.thespacedevs.com/2.2.0/launch/2ead3d70-ac04-40ee-b4a6-dfecfe519ee5/?format=json",
      "launch_library_id": 813,
      "slug": "falcon-9-v10-dragon-spacecraft-qualification-unit",
      "name": "Falcon 9 v1.0 | Dragon Spacecraft Qualification Unit (DSQU)",
      "status": { "id": 3, "name": "Success" },
      "net": "2010-06-04T18:45:00Z",
      "window_end": "2010-06-04T18:45:00Z",
      "window_start": "2010-06-04T18:45:00Z",
      "lsp_name": "SpaceX",
      "mission": "Dragon Spacecraft Qualification Unit (DSQU)",
      "mission_type": "Test Flight",
      "pad": "Space Launch Complex 40",
      "location": "Cape Canaveral, FL, USA",
      "landing": null,
      "landing_success": 0,
      "launcher": "B0003",
      "orbit": "LEO",
      "image": "https://spacelaunchnow-prod-east.nyc3.digitaloceanspaces.com/media/launcher_images/falcon252092520v1.0_image_20190222030703.jpeg",
      "infographic": null
    },
    {
      "id": "04106da6-a43c-4fcf-9cae-4e97dfb37345",
      "url": "https://ll.thespacedevs.com/2.2.0/launch/04106da6-a43c-4fcf-9cae-4e97dfb37345/?format=json",
      "launch_library_id": 855,
      "slug": "falcon-9-v10-spacex-cots-demo-flight-1",
      "name": "Falcon 9 v1.0 | SpaceX COTS Demo Flight 1",
      "status": { "id": 3, "name": "Success" },
      "net": "2010-12-08T15:43:00Z",
      "window_end": "2010-12-08T15:43:00Z",
      "window_start": "2010-12-08T15:43:00Z",
      "lsp_name": "SpaceX",
      "mission": "SpaceX COTS Demo Flight 1",
      "mission_type": "Test Flight",
      "pad": "Space Launch Complex 40",
      "location": "Cape Canaveral, FL, USA",
      "landing": null,
      "landing_success": 0,
      "launcher": "B0004",
      "orbit": "LEO",
      "image": "https://spacelaunchnow-prod-east.nyc3.digitaloceanspaces.com/media/launcher_images/falcon252092520v1.0_image_20190222030703.jpeg",
      "infographic": null
    },
    {
      "id": "ef3b84de-7f1e-4b44-8263-4145f771bfb2",
      "url": "https://ll.thespacedevs.com/2.2.0/launch/ef3b84de-7f1e-4b44-8263-4145f771bfb2/?format=json",
      "launch_library_id": 623,
      "slug": "falcon-9-v10-spacex-cots-demo-flight-2",
      "name": "Falcon 9 v1.0 | SpaceX COTS Demo Flight 2",
      "status": { "id": 3, "name": "Success" },
      "net": "2012-05-22T07:44:38Z",
      "window_end": "2012-05-22T07:44:38Z",
      "window_start": "2012-05-22T07:44:38Z",
      "lsp_name": "SpaceX",
      "mission": "SpaceX COTS Demo Flight 2",
      "mission_type": "Resupply",
      "pad": "Space Launch Complex 40",
      "location": "Cape Canaveral, FL, USA",
      "landing": null,
      "landing_success": 0,
      "launcher": "B0005",
      "orbit": "LEO",
      "image": "https://spacelaunchnow-prod-east.nyc3.digitaloceanspaces.com/media/launcher_images/falcon252092520v1.0_image_20190222030703.jpeg",
      "infographic": null
    },
    {
      "id": "0f2d170a-6639-453a-bf2a-27b53954aeac",
      "url": "https://ll.thespacedevs.com/2.2.0/launch/0f2d170a-6639-453a-bf2a-27b53954aeac/?format=json",
      "launch_library_id": 651,
      "slug": "falcon-9-v10-spx-crs-1",
      "name": "Falcon 9 v1.0 | SpX CRS-1",
      "status": { "id": 7, "name": "Partial Failure" },
      "net": "2012-10-08T00:35:07Z",
      "window_end": "2012-10-08T00:35:07Z",
      "window_start": "2012-10-08T00:35:07Z",
      "lsp_name": "SpaceX",
      "mission": "SpX CRS-1",
      "mission_type": "Resupply",
      "pad": "Space Launch Complex 40",
      "location": "Cape Canaveral, FL, USA",
      "landing": null,
      "landing_success": 0,
      "launcher": "B0006",
      "orbit": "LEO",
      "image": "https://spacelaunchnow-prod-east.nyc3.digitaloceanspaces.com/media/launcher_images/falcon252092520v1.0_image_20190222030703.jpeg",
      "infographic": null
    },
    {
      "id": "6c70bbf3-cbf2-4a4f-8eda-500c230707f0",
      "url": "https://ll.thespacedevs.com/2.2.0/launch/6c70bbf3-cbf2-4a4f-8eda-500c230707f0/?format=json",
      "launch_library_id": 525,
      "slug": "falcon-9-v10-spx-crs-2",
      "name": "Falcon 9 v1.0 | SpX CRS-2",
      "status": { "id": 3, "name": "Success" },
      "net": "2013-03-01T15:10:13Z",
      "window_end": "2013-03-01T15:10:13Z",
      "window_start": "2013-03-01T15:10:13Z",
      "lsp_name": "SpaceX",
      "mission": "SpX CRS-2",
      "mission_type": "Resupply",
      "pad": "Space Launch Complex 40",
      "location": "Cape Canaveral, FL, USA",
      "landing": null,
      "landing_success": 0,
      "launcher": "B0007",
      "orbit": "LEO",
      "image": "https://spacelaunchnow-prod-east.nyc3.digitaloceanspaces.com/media/launcher_images/falcon252092520v1.0_image_20190222030703.jpeg",
      "infographic": null
    }
  ]
}
